…
## ✓ ggplot2 3.3.5          ✓ purrr   0.3.4     
## ✓ tibble  3.1.4          ✓ dplyr   1.0.7     
## ✓ tidyr   1.1.3          ✓ stringr 1.4.0.9000
## ✓ readr   2.0.1          ✓ forcats 0.5.1

## ── Conflicts ────────────────────────────────────────── tidyverse_conflicts() ──
## x dplyr::filter() masks stats::filter()
## x dplyr::lag()    masks stats::lag()

# devtools::install_github("politicaargentina/geoAr")
library(geoAr)
show_arg_codes()

## # A tibble: 26 × 5
##    id           codprov codprov_censo codprov_iso name_iso                      
##    <chr>        <chr>   <chr>         <chr>       <chr>                         
##  1 ARGENTINA    " "     " "           AR          Argentina                     
##  2 CABA         "01"    "02"          AR-C        Ciudad Autónoma de Buenos Air…
##  3 BUENOS AIRES "02"    "06"          AR-B        Buenos Aires                  
##  4 CATAMARCA    "03"    "10"          AR-K        Catamarca                     
##  5 CORDOBA      "04"    "14"          AR-X        Córdoba                       
##  6 CORRIENTES   "05"    "18"          AR-W        Corrientes                    
##  7 CHACO        "06"    "22"          AR-H        Chaco                         
##  8 CHUBUT       "07"    "26"          AR-U        Chubut                        
##  9 ENTRE RIOS   "08"    "30"          AR-E        Entre Ríos                    
## 10 FORMOSA      "09"    "34"          AR-P        Formosa                       
## # … with 16 more rows
…
