Datatón - DataGénero | Macarena Quiroga
…
En mi caso, yo me sumé a la mesa Las chicas superpoderosas. No soy especialista en política ni mucho menos en los tejes y manejes de las cámaras legislativas. Pero no puedo negar que hay algo de la dinámica que me llama la atención. Esta mesa estuvo liderada por Carolina Glasserman Apicella: nos presentamos y elegimos un área.

Elegí el área de Congreso Nacional, por la sola razón de que conozco más nombres. Luego de charlar acerca de las distintas aristas del tema, dado que teníamos solo 50 minutos para trabajar, decidimos enfocarnos en la conformación de las comisiones permanentes dentro de la Cámara de Diputados. Nos hicimos las siguientes preguntas:

¿Cuántas comisiones tienen presidentas o vicepresidentas mujeres?

¿Qué cantidad de mujeres, de hombres y de disidencias tiene cada comisión? ¿Qué porcentaje del total conforman?

¿En qué comisiones hay más cantidad de mujeres que de hombres y viceversa?

A partir de la información disponible en el sitio web oficial de la Cámara de Diputados, pudimos confeccionar una base de datos.

tibble(dipnac)

## # A tibble: 46 x 10
##      NUM COMISIONES         PRESIDENCIA TOTAL MUJERES `PORCENTAJE DE MU~ VARONES
##    <dbl> <chr>                    <dbl> <dbl>   <dbl>              <dbl>   <dbl>
##  1     1 ASUNTOS CONSTITUC~           0    35      17               48.6      18
##  2     2 LEGISLACION GENER~           1    31      15               48.4      16
##  3     3 RELACIONES EXTERI~           0    43      17               39.5      26
##  4     4 PRESUPUESTO Y HAC~           0    49      13               26.5      36
##  5     5 EDUCACION                    1    35      24               68.6      11
##  6     6 CIENCIA, TECNOLOG~           0    30      15               50        15
##  7     7 CULTURA                      1    30      21               70         9
##  8     8 JUSTICIA                     0    30      12               40        18
##  9     9 PREVISIÓN Y SEGUR~           0    30      13               43.3      17
## 10    10 ACCIÓN SOCIAL Y S~           0    45      25               55.6      20
## # ... with 36 more rows, and 3 more variables: PORCENTAJE DE VARONES <dbl>,
## #   DISIDENCIAS <lgl>, PORCENTAJE DE DISIDENCIAS <lgl>
…
De las 46 comisiones, solo 11 tienen más mujeres que hombres en su composición. ¿Cómo se distribuye la presencia de mujeres en las comisiones?

## # A tibble: 46 x 10
##      NUM COMISIONES         PRESIDENCIA TOTAL MUJERES `PORCENTAJE DE MU~ VARONES
##    <dbl> <chr>              <labelled>  <dbl>   <dbl>              <dbl>   <dbl>
##  1    11 FAMILIAS, NIÑEZ Y~ 1              31      28               90.3       3
##  2    46 MUJERES Y DIVERSI~ 1              30      25               83.3       5
##  3     7 CULTURA            1              30      21               70         9
##  4     5 EDUCACION          1              35      24               68.6      11
##  5    45 DISCAPACIDAD       1              30      20               66.7      10
##  6    12 DE LAS PERSONAS M~ 1              31      20               64.5      11
##  7    28 PETICIONES, PODER~ 0              31      19               61.3      12
##  8    44 LIBERTAD DE EXPRE~ 0              31      18               58.1      13
##  9    10 ACCIÓN SOCIAL Y S~ 0              45      25               55.6      20
## 10    25 ASUNTOS MUNICIPAL~ 1              31      17               54.8      14
## # ... with 36 more rows, and 3 more variables: PORCENTAJE DE VARONES <dbl>,
## #   DISIDENCIAS <lgl>, PORCENTAJE DE DISIDENCIAS <lgl>

Al mirar cuáles son las comisiones que tienen más del 50% de mujeres en su composición, encontramos temáticas históricamente feminizadas: las niñeces, adolescencias y juventudes, el cuidado de las personas mayores y con discapacidades, la atención a la diversidad, cultura y educación. Si miramos el gráfico de forma invertida, la conclusión es similar:

## # A tibble: 46 x 10
##      NUM COMISIONES          PRESIDENCIA TOTAL MUJERES `PORCENTAJE DE M~ VARONES
##    <dbl> <chr>               <labelled>  <dbl>   <dbl>             <dbl>   <dbl>
##  1    15 DEFENSA NACIONAL     0             31       5              16.1      26
##  2    23 TRANSPORTES          0             31       5              16.1      26
##  3    16 OBRAS PUBLICAS      NA             31       7              22.6      24
##  4    33 MINERÍA              1             30       7              23.3      23
##  5    17 AGRICULTURA Y GANA~  0             35       9              25.7      26
##  6    18 FINANZAS             1             31       8              25.8      23
##  7    43 SEGURIDAD INTERIOR   1             31       8              25.8      23
##  8     4 PRESUPUESTO Y HACI~  0             49      13              26.5      36
##  9    20 COMERCIO             1             30       8              26.7      22
## 10    26 INTERESES MARITIMO~  1             30       8              26.7      22
## # ... with 36 more rows, and 3 more variables: PORCENTAJE DE VARONES <dbl>,
## #   DISIDENCIAS <lgl>, PORCENTAJE DE DISIDENCIAS <lgl>
…
