…
glimpse(ipd)

## Rows: 6,106
## Columns: 5
## $ category      <chr> "GDP", "GDP", "GDP", "GDP", "GDP", "GDP", "GDP", "GDP", …
## $ meta_cat      <chr> "GDP", "GDP", "GDP", "GDP", "GDP", "GDP", "GDP", "GDP", …
## $ group_num     <dbl> 0, 0, 0, 0, 0, 0, 0, 0, 0, 0, 0, 0, 0, 0, 0, 0, 0, 0, 0,…
## $ year          <dbl> 1947, 1948, 1949, 1950, 1951, 1952, 1953, 1954, 1955, 19…
## $ gross_inv_ipd <dbl> 12.250, 12.946, 12.942, 13.064, 13.950, 14.254, 14.436, …

investment %>% group_by(category) %>% count()

## # A tibble: 60 × 2
## # Groups:   category [60]
##    category                                n
##    <chr>                               <int>
##  1 Air transportation                     71
##  2 All federal                            71
##  3 Conservation and development           71
##  4 Education                              71
##  5 Federal                               639
##  6 Federal electric power structures      71
##  7 Health                                 71
##  8 Highways and streets                   71
##  9 Office buildings, NAICS 518 and 519    71
## 10 Other federal                          71
## # … with 50 more rows
…
